HW05
…
#combine_data <- inner_join(math_data, por_data, by = #c("school","sex","age","address","famsize","Pstatus","Medu","Fedu","Mjob","Fjob","reason","nursery","internet"))

combine_data <- inner_join(math_data, por_data,  by = setdiff(colnames(math_data), c("G1", "G2", "G3", "paid", "absences")))
print(nrow(combine_data))

[1] 320

print(combine_data)

# A tibble: 320 × 38
   school sex     age address famsize Pstatus  Medu  Fedu Mjob     Fjob   reason
   <chr>  <chr> <dbl> <chr>   <chr>   <chr>   <dbl> <dbl> <chr>    <chr>  <chr> 
 1 GP     F        18 U       GT3     A           4     4 at_home  teach… course
 2 GP     F        17 U       GT3     T           1     1 at_home  other  course
 3 GP     F        15 U       GT3     T           4     2 health   servi… home  
 4 GP     F        16 U       GT3     T           3     3 other    other  home  
 5 GP     M        16 U       LE3     T           4     3 services other  reput…
 6 GP     M        16 U       LE3     T           2     2 other    other  home  
 7 GP     F        17 U       GT3     A           4     4 other    teach… home  
 8 GP     M        15 U       LE3     A           3     2 services other  home  
 9 GP     M        15 U       GT3     T           3     4 other    other  home  
10 GP     F        15 U       GT3     T           4     4 teacher  health reput…
# ℹ 310 more rows
# ℹ 27 more variables: guardian <chr>, traveltime <dbl>, studytime <dbl>,
#   failures <dbl>, schoolsup <chr>, famsup <chr>, paid.x <chr>,
#   activities <chr>, nursery <chr>, higher <chr>, internet <chr>,
#   romantic <chr>, famrel <dbl>, freetime <dbl>, goout <dbl>, Dalc <dbl>,
#   Walc <dbl>, health <dbl>, absences.x <dbl>, G1.x <dbl>, G2.x <dbl>,
#   G3.x <dbl>, paid.y <chr>, absences.y <dbl>, G1.y <dbl>, G2.y <dbl>, …
…
print(unique(math_data$school))

[1] "GP" "MS"

#intersect(names(data1), names(data2))
math_data <- math_data |>
  mutate(school = factor(school, levels = c("GP", "MS"), labels = c("Gabriel Pereira", "Mousinho da Silveira")),
         sex = factor(sex, levels = c("F", "M"), labels = c("Female", "Male")),
         address = factor(address, levels = c("U","R"), labels = c("Urban", "Rural")),
         reason = factor(reason, levels = c("home","reputation","course","other"),labels = c("Home", "Reputation", "Course", "Other")))

math_data

# A tibble: 395 × 33
   school     sex     age address famsize Pstatus  Medu  Fedu Mjob  Fjob  reason
   <fct>      <fct> <dbl> <fct>   <chr>   <chr>   <dbl> <dbl> <chr> <chr> <fct> 
 1 Gabriel P… Fema…    18 Urban   GT3     A           4     4 at_h… teac… Course
 2 Gabriel P… Fema…    17 Urban   GT3     T           1     1 at_h… other Course
 3 Gabriel P… Fema…    15 Urban   LE3     T           1     1 at_h… other Other 
 4 Gabriel P… Fema…    15 Urban   GT3     T           4     2 heal… serv… Home  
 5 Gabriel P… Fema…    16 Urban   GT3     T           3     3 other other Home  
 6 Gabriel P… Male     16 Urban   LE3     T           4     3 serv… other Reput…
 7 Gabriel P… Male     16 Urban   LE3     T           2     2 other other Home  
 8 Gabriel P… Fema…    17 Urban   GT3     A           4     4 other teac… Home  
 9 Gabriel P… Male     15 Urban   LE3     A           3     2 serv… other Home  
10 Gabriel P… Male     15 Urban   GT3     T           3     4 other other Home  
# ℹ 385 more rows
# ℹ 22 more variables: guardian <chr>, traveltime <dbl>, studytime <dbl>,
#   failures <dbl>, schoolsup <chr>, famsup <chr>, paid <chr>,
#   activities <chr>, nursery <chr>, higher <chr>, internet <chr>,
#   romantic <chr>, famrel <dbl>, freetime <dbl>, goout <dbl>, Dalc <dbl>,
#   Walc <dbl>, health <dbl>, absences <dbl>, G1 <dbl>, G2 <dbl>, G3 <dbl>

por_data <- por_data |>
  mutate(sex = factor(sex, levels = c("F", "M"), labels = c("Female", "Male")),
         address = factor(address, levels = c("U","R"), labels = c("Urban", "Rural")),
         school = factor(school, levels = c("GP", "MS"), labels = c("Gabriel Pereira", "Mousinho da Silveira")),
         reason = factor(reason, levels = c("home","reputation","course","other"), labels = c("Home", "Reputation", "Course", "Other")))

por_data

# A tibble: 649 × 33
   school     sex     age address famsize Pstatus  Medu  Fedu Mjob  Fjob  reason
   <fct>      <fct> <dbl> <fct>   <chr>   <chr>   <dbl> <dbl> <chr> <chr> <fct> 
 1 Gabriel P… Fema…    18 Urban   GT3     A           4     4 at_h… teac… Course
 2 Gabriel P… Fema…    17 Urban   GT3     T           1     1 at_h… other Course
 3 Gabriel P… Fema…    15 Urban   LE3     T           1     1 at_h… other Other 
 4 Gabriel P… Fema…    15 Urban   GT3     T           4     2 heal… serv… Home  
 5 Gabriel P… Fema…    16 Urban   GT3     T           3     3 other other Home  
 6 Gabriel P… Male     16 Urban   LE3     T           4     3 serv… other Reput…
 7 Gabriel P… Male     16 Urban   LE3     T           2     2 other other Home  
 8 Gabriel P… Fema…    17 Urban   GT3     A           4     4 other teac… Home  
 9 Gabriel P… Male     15 Urban   LE3     A           3     2 serv… other Home  
10 Gabriel P… Male     15 Urban   GT3     T           3     4 other other Home  
# ℹ 639 more rows
# ℹ 22 more variables: guardian <chr>, traveltime <dbl>, studytime <dbl>,
#   failures <dbl>, schoolsup <chr>, famsup <chr>, paid <chr>,
#   activities <chr>, nursery <chr>, higher <chr>, internet <chr>,
#   romantic <chr>, famrel <dbl>, freetime <dbl>, goout <dbl>, Dalc <dbl>,
#   Walc <dbl>, health <dbl>, absences <dbl>, G1 <dbl>, G2 <dbl>, G3 <dbl>
…
